newmtl skybox_foresthills_back
illum 4
Kd 0.00 0.00 0.00
Ka 0.68 0.68 0.68
Tf 1.00 1.00 1.00
map_Kd Skybox.png
Ni 1.00
newmtl skybox_foresthills_bottom
illum 4
Kd 0.00 0.00 0.00
Ka 0.68 0.68 0.68
Tf 1.00 1.00 1.00
map_Kd skybox_forest_medow_6.jpg
Ni 1.00
Ks 0.61 0.61 0.61
Ns 0.06
newmtl skybox_foresthills_front
illum 4
Kd 0.00 0.00 0.00
Ka 0.67 0.67 0.67
Tf 1.00 1.00 1.00
map_Kd skybox_forest_medow_4.jpg
Ni 1.00
Ks 0.60 0.60 0.60
Ns 0.06
newmtl skybox_foresthills_left
illum 4
Kd 0.00 0.00 0.00
Ka 0.68 0.68 0.68
Tf 1.00 1.00 1.00
map_Kd skybox_forest_medow_1.jpg
Ni 1.00
Ks 0.61 0.61 0.61
Ns 0.06
newmtl skybox_foresthills_right
illum 4
Kd 0.00 0.00 0.00
Ka 1.00 1.00 1.00
Tf 1.00 1.00 1.00
map_Kd skybox_forest_medow_11.jpg
Ni 1.00
Ks 1.00 1.00 1.00
Ns 0.06
newmtl skybox_foresthills_top
illum 4
Kd 0.00 0.00 0.00
Ka 0.68 0.68 0.68
Tf 1.00 1.00 1.00
map_Kd skybox_forest_medow_5.jpg
Ni 1.00
Ks 0.61 0.61 0.61
Ns 0.06
